//Name-adminpanel.html

<!DOCTYPE html PUBLIC "-//W3C//DTD XHTML 1.0 Transitional//EN" "http://www.w3.org/TR/xhtml1/DTD/xhtml1-transitional.dtd">
<html xmlns="http://www.w3.org/1999/xhtml">
<head>
<meta http-equiv="Content-Type" content="text/html; charset=utf-8" />
<title>AdminPanel</title>
<script type="text/JavaScript" src="Form_Validate.js">
</script>
<style>
  #formno1{
      background-color: orange;
      font-size:17px;
      	position:fixed;
      	top:85px;
           left:0px;
            width:400px;
            height:350px;
  }
  #formno2{
  	background-color: red;
  	font-size:17px;
  	position:fixed;
      	top:440px;
           left:0px;
            width:400px;
            height:70px;
  	
  }
  

</style>
</head>
<body>
<div style="background-color:orange;	position:fixed; top:0px;  left:0px;right:0; height:80px;">	
<h1 style="font-size: 40px;text-align: center;">BIBLIOTHECA ADMIN</h1>
</div>
<div id="formno1">
<form id="form1" name="form1" method="post" action="records.php" >
 <table>
   <tr>
   <td>Book ID:</td>
   <td><input id="bookid" type="text" name="bookid" style="width:250px;" /></td>
   </tr>
   <tr>
   <td>ISBN-No:</td>
   <td><input id="isbnno" type="text" name="isbnno" style="width:250px;" /></td>
   </tr>
   <tr>
   <td>Title:</td>
   <td><input id="title" type="text" name="title" style="width:250px;" /></td>
   </tr>
   <tr>
   <td>Author:</td>
   <td><input id="author" type="text" name="author" style="width:250px;" /></td>
   </tr>
   <tr>
   <td>Publisher:</td>
   <td><input id="publisher" type="text" name="publisher" style="width:250px;" /></td>
   </tr>
   <tr>
   <td>Category:</td>
   <td>
   
   <select name="values">
    <option value="Encyclopidia">Encyclopidia</option>
    <option value="History/Geography"> History/Geography</option>
    <option value="Magazine">Magazine</option>
    <option value="Novel">Novel </option>
    <option value="Science">Science</option>
   </select>
   </td>
   </tr>
   <tr>
   <td>Quantity:</td>
   <td><input id="quantity" type="text" name="quantity" style="width:250px;" /></td>
   </tr>
   <tr>
   <td>Price(Rs):</td>
   <td><input id="price" type="text" name="price" style="width:250px;" /></td>
   </tr>
   <tr>
      <td>Description:</td>
      <td><textarea name="description" id="description" cols="34" rows="5"> </textarea></td>
  </tr>
  
  <tr>
      <td>&nbsp;</td>
      <td>
      <input type="submit" name="insert" id="insert" value="Insert" onclick="return validateForm()" style="font-size:15px;padding:2px 10px;"/>
      <input type="submit" name="update" id="update" value="Update" style="font-size:15px;padding:2px 10px;"  />
      <input type="submit" name="delete" id="delete" value="Delete" style="font-size:15px;padding:2px 10px;" />
      <input type="reset" value="Reset" style="font-size:15px;padding:2px 10px;">
      </td>
    </tr>

  </table>
</form>
</div>
<div id="formno2">
<form id="form2" name="form2" method="post" action="view.php" >

 <table>
   <tr>
   <td style="position: absolute;">Click to Display the book details: </td>
  <td>
   <a href="view.php"><input type="button" value="View All" style="position:absolute;left:245px; font-size:15px;padding:2px 7px;" ></a>
  </td>
  </tr>

  </table>
</form>
</div>
<img src="adminimage.jpg" style="position: fixed;left: 400px;  top: 85px;z-index: -1 ;" width:"550" height="550" />
<div  style="position: absolute;left: 410px;  top: 90px;font-size:100%;color:white;">
<h1>Reading<br/>Makes a perfect man....</h1>

</div>
</body>
</html>



