//Name:records.php

<!DOCTYPE html>
<html>
<head>
	<style type="text/css">
		body{
	    
		background:url('background1.jpg');
		background-size: 100% 2000%;
		background-repeat:no-repeat;
		
		}
		div{
			background-color:orange;
			position:fixed;
            top:0;
            left:0;
            right:0;
            height:70px;
		}
		h2{
			position:absolute;
            top:100px;
            left:0;
            
		}
		
		
		
	</style>
</head>	
<body>

<?php
 $connect=mysqli_connect("localhost","root","","ITA_PROJECT");
 
 if (mysqli_connect_errno()) {
  echo "Failed to connect to MySQL: " . mysqli_connect_error();
}
else {
	echo "<div>"."<h1>"." Connected to the Database! "."</h1>"."</div>";
}

$bookid = $_POST['bookid'];
$isbnno = $_POST['isbnno'];
$title = $_POST['title'];
$author = $_POST['author'];
$publisher = $_POST['publisher'];
$quantity = $_POST['quantity'];
$price = $_POST['price'];
$description = $_POST['description'];
$categori=$_POST['values'];



 if (isset($_POST['insert'])){
 
 $insertdata=" INSERT INTO BOOKS VALUES('$bookid','$isbnno','$title','$author','$publisher','$categori','$quantity','$price','$description') ";
 
 
 if(!mysqli_query($connect,$insertdata)) {
     die('Error! Not added!'.mysql_error($connect)); 
 } 
 else
 {  $z=1;
 	echo '<br/>';
     echo "<h2>".'1 record added...'."</h2>";	
 }
  
     
}
else if (isset($_POST["update"]))
{$x=0;
$r = mysqli_query($connect,"SELECT * FROM BOOKS");
while($ro = mysqli_fetch_array($r))
{
if($ro['BookID']==$bookid){
	
$updatedata = "UPDATE BOOKS SET ISBN_No='$isbnno',Title='$title',Author='$author',Publisher='$publisher',Category='$categori',Quantity='$quantity',Price='$price',Description='$description'";
if(!mysqli_query($connect,$updatedata)) 
{
die('Error! Not Updated! '.mysql_error());
} 
else {
$x=1;	
echo '<br/>';
echo "<h2>".'1 record updated...'."</h2>";
}      }}
if($x==0)
  echo "<br/>"."<h2>"."BookID Not Found! Not Updated!"."</h2>";
}

else if (isset($_POST["delete"]))
{
$y=0;
$re = mysqli_query($connect,"SELECT * FROM BOOKS");
while($rw = mysqli_fetch_array($re))
{
if($rw['BookID']==$bookid){
		
$deletedata = "DELETE FROM BOOKS WHERE BookID='$bookid'";
if(!mysqli_query($connect,$deletedata)) {
die('Error Noy Deleted! '.mysql_error());
} 
else {
$y=1;	
echo '<br/>';
echo "<h2>".'1 record deleted...'."</h2>";
}   }}
if($y==0)
  echo "<br/>"."<h2>"." BookID Not Found! Not Deleted!"."</h2>";
}


 mysqli_close($connect);
 ?>
 
 
 </body>
 </html>
 